<?xml version="1.0" encoding="utf-8"?>
<!-- Generator: Adobe Illustrator 25.0.1, SVG Export Plug-In . SVG Version: 6.00 Build 0)  -->
<svg version="1.1" id="Capa_1" xmlns="http://www.w3.org/2000/svg" xmlns:xlink="http://www.w3.org/1999/xlink" x="0px" y="0px"
	 viewBox="0 0 512 512" style="enable-background:new 0 0 512 512;" xml:space="preserve">
<style type="text/css">
	.st0{fill:url(#SVGID_1_);}
	.st1{fill:url(#SVGID_2_);}
	.st2{fill:url(#SVGID_3_);}
	.st3{fill:url(#SVGID_4_);}
	.st4{fill:url(#SVGID_5_);}
	.st5{fill:url(#SVGID_6_);}
	.st6{fill:url(#SVGID_7_);}
	.st7{fill:url(#SVGID_8_);}
	.st8{fill:url(#SVGID_9_);}
	.st9{fill:url(#SVGID_10_);}
	.st10{fill:url(#SVGID_11_);}
	.st11{fill:url(#SVGID_12_);}
	.st12{fill:url(#SVGID_13_);}
	.st13{fill:url(#SVGID_14_);}
	.st14{fill:url(#SVGID_15_);}
</style>
<g>
	<g>
		<linearGradient id="SVGID_1_" gradientUnits="userSpaceOnUse" x1="60.568" y1="256" x2="451.432" y2="256">
			<stop  offset="0.2262" style="stop-color:#2D4077"/>
			<stop  offset="1" style="stop-color:#233871"/>
		</linearGradient>
		<path class="st0" d="M432,55.2h-83.2C347.5,44,338,35.3,326.5,35.3h-33.1C292.3,15.7,275.9,0,256,0s-36.3,15.7-37.4,35.3h-33.1
			c-11.5,0-21,8.7-22.3,19.9h-35.7c-4.1,0-7.5,3.4-7.5,7.5s3.4,7.5,7.5,7.5H163v15.5h-48.7c-10.3,0-18.7,8.4-18.7,18.7v358.3
			c0,10.3,8.4,18.7,18.7,18.7h125.8c4.1,0,7.5-3.4,7.5-7.5s-3.4-7.5-7.5-7.5H114.3c-2.1,0-3.7-1.7-3.7-3.7V104.4
			c0-2.1,1.7-3.7,3.7-3.7h49.2c2.1,10.3,11.2,18,22,18h141c10.9,0,20-7.7,22-18h49.2c2.1,0,3.7,1.7,3.7,3.7v358.3
			c0,2.1-1.7,3.7-3.7,3.7H270.1c-4.1,0-7.5,3.4-7.5,7.5s3.4,7.5,7.5,7.5h127.6c10.3,0,18.7-8.4,18.7-18.7V104.4
			c0-10.3-8.4-18.7-18.7-18.7H349V70.2h83c2.4,0,4.4,2,4.4,4.4v418c0,2.4-2,4.4-4.4,4.4H80c-2.4,0-4.4-2-4.4-4.4v-418
			c0-2.4,2-4.4,4.4-4.4h17.5c4.1,0,7.5-3.4,7.5-7.5s-3.4-7.5-7.5-7.5H80c-10.7,0-19.4,8.7-19.4,19.4v418c0,10.7,8.7,19.4,19.4,19.4
			h352c10.7,0,19.4-8.7,19.4-19.4v-418C451.4,63.9,442.7,55.2,432,55.2z M334,96.2c0,4.1-3.4,7.5-7.5,7.5h-141
			c-4.1,0-7.5-3.4-7.5-7.5c0,0.1,0-31.1,0-38.4c0-4.1,3.4-7.5,7.5-7.5h35.2c7.1,0,12.9-5.8,12.9-12.9c0-12.4,10.1-22.4,22.4-22.4
			s22.4,10.1,22.4,22.4c0,7.1,5.8,12.9,12.9,12.9h35.2c4.1,0,7.5,3.4,7.5,7.5L334,96.2L334,96.2z"/>
		<linearGradient id="SVGID_2_" gradientUnits="userSpaceOnUse" x1="234.053" y1="62.682" x2="277.947" y2="62.682">
			<stop  offset="0.2262" style="stop-color:#2D4077"/>
			<stop  offset="1" style="stop-color:#233871"/>
		</linearGradient>
		<path class="st1" d="M270.4,55.2h-28.9c-4.1,0-7.5,3.4-7.5,7.5s3.4,7.5,7.5,7.5h28.9c4.1,0,7.5-3.4,7.5-7.5S274.6,55.2,270.4,55.2
			z"/>
		<linearGradient id="SVGID_3_" gradientUnits="userSpaceOnUse" x1="326.094" y1="184.207" x2="346.415" y2="184.207">
			<stop  offset="0.2262" style="stop-color:#2D4077"/>
			<stop  offset="1" style="stop-color:#233871"/>
		</linearGradient>
		<path class="st2" d="M338.9,176.7h-5.3c-4.1,0-7.5,3.4-7.5,7.5s3.4,7.5,7.5,7.5h5.3c4.1,0,7.5-3.4,7.5-7.5
			S343.1,176.7,338.9,176.7z"/>
		<linearGradient id="SVGID_4_" gradientUnits="userSpaceOnUse" x1="326.094" y1="207.743" x2="346.415" y2="207.743">
			<stop  offset="0.2262" style="stop-color:#2D4077"/>
			<stop  offset="1" style="stop-color:#233871"/>
		</linearGradient>
		<path class="st3" d="M338.9,200.2h-5.3c-4.1,0-7.5,3.4-7.5,7.5s3.4,7.5,7.5,7.5h5.3c4.1,0,7.5-3.4,7.5-7.5
			S343.1,200.2,338.9,200.2z"/>
		<linearGradient id="SVGID_5_" gradientUnits="userSpaceOnUse" x1="326.094" y1="231.279" x2="346.415" y2="231.279">
			<stop  offset="0.2262" style="stop-color:#2D4077"/>
			<stop  offset="1" style="stop-color:#233871"/>
		</linearGradient>
		<path class="st4" d="M338.9,223.8h-5.3c-4.1,0-7.5,3.4-7.5,7.5s3.4,7.5,7.5,7.5h5.3c4.1,0,7.5-3.4,7.5-7.5
			S343.1,223.8,338.9,223.8z"/>
		<linearGradient id="SVGID_6_" gradientUnits="userSpaceOnUse" x1="142.254" y1="158.318" x2="228.645" y2="158.318">
			<stop  offset="0.2262" style="stop-color:#2D4077"/>
			<stop  offset="1" style="stop-color:#233871"/>
		</linearGradient>
		<path class="st5" d="M149.8,165.8h71.4c4.1,0,7.5-3.4,7.5-7.5s-3.4-7.5-7.5-7.5h-71.4c-4.1,0-7.5,3.4-7.5,7.5
			S145.6,165.8,149.8,165.8z"/>
		<linearGradient id="SVGID_7_" gradientUnits="userSpaceOnUse" x1="142.254" y1="191.269" x2="228.645" y2="191.269">
			<stop  offset="0.2262" style="stop-color:#2D4077"/>
			<stop  offset="1" style="stop-color:#233871"/>
		</linearGradient>
		<path class="st6" d="M149.8,198.8h71.4c4.1,0,7.5-3.4,7.5-7.5s-3.4-7.5-7.5-7.5h-71.4c-4.1,0-7.5,3.4-7.5,7.5
			S145.6,198.8,149.8,198.8z"/>
		<linearGradient id="SVGID_8_" gradientUnits="userSpaceOnUse" x1="142.254" y1="224.218" x2="228.645" y2="224.218">
			<stop  offset="0.2262" style="stop-color:#2D4077"/>
			<stop  offset="1" style="stop-color:#233871"/>
		</linearGradient>
		<path class="st7" d="M149.8,231.7h71.4c4.1,0,7.5-3.4,7.5-7.5s-3.4-7.5-7.5-7.5h-71.4c-4.1,0-7.5,3.4-7.5,7.5
			S145.6,231.7,149.8,231.7z"/>
		<linearGradient id="SVGID_9_" gradientUnits="userSpaceOnUse" x1="142.254" y1="257.167" x2="228.645" y2="257.167">
			<stop  offset="0.2262" style="stop-color:#2D4077"/>
			<stop  offset="1" style="stop-color:#233871"/>
		</linearGradient>
		<path class="st8" d="M149.8,264.7h71.4c4.1,0,7.5-3.4,7.5-7.5s-3.4-7.5-7.5-7.5h-71.4c-4.1,0-7.5,3.4-7.5,7.5
			S145.6,264.7,149.8,264.7z"/>
		<linearGradient id="SVGID_10_" gradientUnits="userSpaceOnUse" x1="126.8587" y1="365.5355" x2="275.1526" y2="365.5355">
			<stop  offset="0.2262" style="stop-color:#2D4077"/>
			<stop  offset="1" style="stop-color:#233871"/>
		</linearGradient>
		<path class="st9" d="M210.3,441c4.1,0,7.5-3.4,7.5-7.5v-11.2l41.1-23.7c2.3-1.3,3.8-3.8,3.8-6.5v-47.4l8.8-5
			c3.6-2.1,4.8-6.6,2.8-10.2c-2.1-3.6-6.6-4.8-10.2-2.8l-8.8,5.1l-37.3-21.5v-12.5c0-4.1-3.4-7.5-7.5-7.5s-7.5,3.4-7.5,7.5v12.5
			l-41.1,23.7c-2.3,1.3-3.8,3.8-3.8,6.5v47.3l-8.9,4.9l-10.7-6.8c-3.5-2.2-8.1-1.2-10.4,2.3c-2.2,3.5-1.2,8.1,2.3,10.4l11,7v12.5
			c0,4.1,3.4,7.5,7.5,7.5s7.5-3.4,7.5-7.5v-12.2l9.1-5l37.4,21.6v11.2C202.8,437.6,206.1,441,210.3,441z M173,344.6l37.3-21.5
			l37.3,21.5v43.1l-37.3,21.5L173,387.7L173,344.6z"/>
		<linearGradient id="SVGID_11_" gradientUnits="userSpaceOnUse" x1="303.003" y1="317.877" x2="376.231" y2="317.877">
			<stop  offset="0.2262" style="stop-color:#2D4077"/>
			<stop  offset="1" style="stop-color:#233871"/>
		</linearGradient>
		<path class="st10" d="M368.7,310.4h-58.2c-4.1,0-7.5,3.4-7.5,7.5s3.4,7.5,7.5,7.5h58.2c4.1,0,7.5-3.4,7.5-7.5
			S372.9,310.4,368.7,310.4z"/>
		<linearGradient id="SVGID_12_" gradientUnits="userSpaceOnUse" x1="303.003" y1="349.648" x2="376.231" y2="349.648">
			<stop  offset="0.2262" style="stop-color:#2D4077"/>
			<stop  offset="1" style="stop-color:#233871"/>
		</linearGradient>
		<path class="st11" d="M368.7,342.1h-58.2c-4.1,0-7.5,3.4-7.5,7.5s3.4,7.5,7.5,7.5h58.2c4.1,0,7.5-3.4,7.5-7.5
			S372.9,342.1,368.7,342.1z"/>
		<linearGradient id="SVGID_13_" gradientUnits="userSpaceOnUse" x1="303.003" y1="381.42" x2="376.231" y2="381.42">
			<stop  offset="0.2262" style="stop-color:#2D4077"/>
			<stop  offset="1" style="stop-color:#233871"/>
		</linearGradient>
		<path class="st12" d="M368.7,373.9h-58.2c-4.1,0-7.5,3.4-7.5,7.5s3.4,7.5,7.5,7.5h58.2c4.1,0,7.5-3.4,7.5-7.5
			S372.9,373.9,368.7,373.9z"/>
		<linearGradient id="SVGID_14_" gradientUnits="userSpaceOnUse" x1="303.003" y1="413.191" x2="376.231" y2="413.191">
			<stop  offset="0.2262" style="stop-color:#2D4077"/>
			<stop  offset="1" style="stop-color:#233871"/>
		</linearGradient>
		<path class="st13" d="M368.7,405.7h-58.2c-4.1,0-7.5,3.4-7.5,7.5s3.4,7.5,7.5,7.5h58.2c4.1,0,7.5-3.4,7.5-7.5
			S372.9,405.7,368.7,405.7z"/>
		<linearGradient id="SVGID_15_" gradientUnits="userSpaceOnUse" x1="253.6464" y1="207.7435" x2="376.231" y2="207.7435">
			<stop  offset="0.2262" style="stop-color:#2D4077"/>
			<stop  offset="1" style="stop-color:#233871"/>
		</linearGradient>
		<path class="st14" d="M368.7,200.2c4.1,0,7.5-3.4,7.5-7.5v-40.4c0-4.1-3.4-7.5-7.5-7.5H261.1c-2.9,0-5.5,1.7-6.8,4.3
			c-1.2,2.6-0.9,5.7,0.9,7.9l18.3,22.9V240c0,16.9,13.8,30.7,30.7,30.7h41.2c16.9,0,30.7-13.8,30.7-30.7v-17.3
			c0-4.1-3.4-7.5-7.5-7.5s-7.5,3.4-7.5,7.5V240c0,8.7-7,15.7-15.7,15.7h-41.2c-8.7,0-15.7-7-15.7-15.7v-62.8c0-1.7-0.6-3.4-1.7-4.7
			l-10.2-12.7h84.4v32.9C361.2,196.9,364.6,200.2,368.7,200.2L368.7,200.2z"/>
	</g>
</g>
</svg>
