<?xml version="1.0" encoding="utf-8"?>
<!-- Generator: Adobe Illustrator 24.2.3, SVG Export Plug-In . SVG Version: 6.00 Build 0)  -->
<svg version="1.1" id="Capa_1" xmlns="http://www.w3.org/2000/svg" xmlns:xlink="http://www.w3.org/1999/xlink" x="0px" y="0px"
	 viewBox="0 0 512 512" style="enable-background:new 0 0 512 512;" xml:space="preserve">
<style type="text/css">
	.st0{display:none;}
	.st1{display:inline;}
	.st2{fill:#5EAC24;}
	.st3{fill:#4E901E;}
	.st4{fill:#FFCD00;}
	.st5{fill:#DDB200;}
	.st6{fill:#2488FF;}
	.st7{fill:#005ECE;}
	.st8{fill:#FFC477;}
	.st9{fill:#FFA733;}
	.st10{fill:none;}
	.st11{fill:url(#SVGID_1_);}
	.st12{fill:url(#SVGID_2_);}
	.st13{fill:url(#SVGID_3_);}
	.st14{fill:url(#SVGID_4_);}
	.st15{fill:url(#SVGID_5_);}
	.st16{fill:url(#SVGID_6_);}
</style>
<g id="Capa_1_1_" class="st0">
	<g id="Money" class="st1">
		<path class="st2" d="M24,72h336v176H24V72z"/>
		<path class="st3" d="M328,72h32v176h-32V72z"/>
		<circle class="st4" cx="192" cy="160" r="56"/>
		<path class="st5" d="M248,160c0,30.9-25.1,56-56,56c-5.4,0-10.8-0.8-16-2.3c29.6-8.8,46.5-40,37.7-69.6
			c-5.4-18.1-19.6-32.3-37.7-37.7c5.2-1.6,10.6-2.3,16-2.3C222.9,104,248,129.1,248,160L248,160z"/>
		<path class="st6" d="M440,24h48v176h-48V24z"/>
		<path class="st7" d="M464,24h24v176h-24V24z"/>
		<path class="st8" d="M476.6,324L230,467.7c-4.9,2.8-10.4,4.3-16.1,4.3H104l-32-7.9V336l32.1-8H264c17.6,0,32,14.3,32,31.9
			c0,5.8-1.6,11.5-4.6,16.5l161.3-94c11.4-6.6,26-2.6,32.6,8.8l0,0C491.8,302.7,487.9,317.3,476.6,324L476.6,324z"/>
		<path class="st9" d="M291.7,376c-5.7-9.9-16.3-16-27.7-16H104.1L72,368v-32l32.1-8H264c17.6,0,32,14.3,32,31.9
			C296,365.6,294.5,371.1,291.7,376z"/>
		<path class="st9" d="M482.3,319.2c-7.5-8.4-19.8-10.4-29.6-4.8l-161.3,94c6-9.9,6.1-22.2,0.3-32.2l161-93.8
			c11.5-6.6,26.1-2.6,32.6,8.9C490.5,300.3,489.3,311.5,482.3,319.2L482.3,319.2z"/>
		<path class="st10" d="M291.8,376.2c0-0.1,0-0.1-0.1-0.2"/>
		<path class="st8" d="M440,40v128l-34.1,13.6c-3.8,1.5-8,1.5-11.8,0L360,168h-72c-13.3,0-24-10.7-24-24s10.7-24,24-24h72V72H232
			l32-32H440z"/>
		<path class="st9" d="M440,40v128l-34.1,13.6c-3.8,1.5-8,1.5-11.8,0l-10.1-4l24-9.6V40H440z"/>
		<path class="st6" d="M40,312h16c8.8,0,16,7.2,16,16v144c0,8.8-7.2,16-16,16H40c-8.8,0-16-7.2-16-16V328C24,319.2,31.2,312,40,312z
			"/>
		<path class="st7" d="M72,328v144c0,8.8-7.2,16-16,16H40c-1.4,0-2.7-0.2-4-0.6c7-1.8,12-8.2,12-15.4V328c0-7.3-5-13.6-12-15.4
			c1.3-0.4,2.6-0.6,4-0.6h16C64.8,312,72,319.2,72,328z"/>
		<path d="M492.2,287.2c-8.8-15.2-28.3-20.4-43.5-11.7L304,359.8c-0.1-22-18-39.8-40-39.8H104.1c-0.7,0-1.3,0.1-1.9,0.2l-22.4,5.6
			C78.7,313.5,68.4,304,56,304H40c-13.3,0-24,10.7-24,24v144c0,13.3,10.7,24,24,24h16c12.3,0,22.6-9.4,23.8-21.7l22.3,5.5
			c0.6,0.2,1.3,0.2,1.9,0.2h109.9c7.1,0,14-1.9,20.1-5.4l246.5-143.7C495.7,321.9,500.9,302.5,492.2,287.2L492.2,287.2z M64,472
			c0,4.4-3.6,8-8,8H40c-4.4,0-8-3.6-8-8V328c0-4.4,3.6-8,8-8h16c4.4,0,8,3.6,8,8V472z M472.5,317.1L226,460.7
			c-3.7,2.1-7.8,3.3-12.1,3.3H105l-25-6.2V342.3l25.1-6.3H264c13.2,0,24,10.7,24,23.9c0,4.4-1.2,8.6-3.4,12.4
			c-1,1.7-2.2,3.3-3.6,4.7c-4.5,4.5-10.6,7-17,7.1h-80v16h80c13.3,0.1,25.8-6.6,33.1-17.7l159.6-93c7.5-4.4,17.1-1.9,21.5,5.6
			c0,0.1,0.1,0.1,0.1,0.2C482.7,302.8,480.1,312.6,472.5,317.1z"/>
		<path d="M24,256h336c4.4,0,8-3.6,8-8v-68.2l23.1,9.2c5.7,2.3,12.1,2.3,17.8,0l23.1-9.2V200c0,4.4,3.6,8,8,8h48c4.4,0,8-3.6,8-8V24
			c0-4.4-3.6-8-8-8h-48c-4.4,0-8,3.6-8,8v8H264c-2.1,0-4.2,0.8-5.7,2.3L228.7,64H24c-4.4,0-8,3.6-8,8v176C16,252.4,19.6,256,24,256
			L24,256z M448,32h32v160h-32V32z M267.3,48H432v114.6l-29,11.6c-1.9,0.8-4,0.8-5.9,0L363,160.6c-0.9-0.4-2-0.6-3-0.6h-72
			c-8.8,0-16-7.2-16-16s7.2-16,16-16h104v-16h-24V72c0-4.4-3.6-8-8-8H251.3L267.3,48z M32,80h320v32h-64c-17.7,0-32,14.3-32,32
			s14.3,32,32,32h64v64H32V80z"/>
		<path d="M192,96c-35.3,0-64,28.7-64,64s28.7,64,64,64s64-28.7,64-64S227.3,96,192,96z M192,208c-26.5,0-48-21.5-48-48
			s21.5-48,48-48s48,21.5,48,48S218.5,208,192,208z"/>
		<path d="M48,104v32h16v-24h24V96H56C51.6,96,48,99.6,48,104z"/>
		<path d="M64,184H48v32c0,4.4,3.6,8,8,8h32v-16H64V184z"/>
		<path d="M320,208h-24v16h32c4.4,0,8-3.6,8-8v-32h-16V208z"/>
	</g>
</g>
<g id="Capa_2_1_">
	<g>
		<g>
			
				<linearGradient id="SVGID_1_" gradientUnits="userSpaceOnUse" x1="300" y1="176.05" x2="384" y2="176.05" gradientTransform="matrix(1 0 0 -1 0 514)">
				<stop  offset="0" style="stop-color:#2A3E75"/>
				<stop  offset="1" style="stop-color:#233871"/>
			</linearGradient>
			<path class="st11" d="M342,328.4c-12.1,0-22-8.5-22-19s9.9-19,22-19s22,8.5,22,19c0,5.5,4.5,10,10,10s10-4.5,10-10
				c0-18.3-13.7-33.7-32-37.9v-5.2c0-5.5-4.5-10-10-10s-10,4.5-10,10v5.2c-18.3,4.2-32,19.6-32,37.9c0,21.5,18.8,39,42,39
				c12.1,0,22,8.5,22,19s-9.9,19-22,19s-22-8.5-22-19c0-5.5-4.5-10-10-10s-10,4.5-10,10c0,18.3,13.7,33.7,32,37.9v4.3
				c0,5.5,4.5,10,10,10s10-4.5,10-10v-4.3c18.3-4.2,32-19.6,32-37.9C384,345.9,365.1,328.4,342,328.4z"/>
		</g>
	</g>
	<g>
		<g>
			
				<linearGradient id="SVGID_2_" gradientUnits="userSpaceOnUse" x1="384.0073" y1="200.9464" x2="472" y2="200.9464" gradientTransform="matrix(1 0 0 -1 0 514)">
				<stop  offset="0" style="stop-color:#2A3E75"/>
				<stop  offset="1" style="stop-color:#233871"/>
			</linearGradient>
			<path class="st12" d="M451.5,268.9c-13.1-20.4-31.5-36.6-53.2-47.1c-5-2.4-11-0.3-13.3,4.7c-2.4,5-0.3,11,4.7,13.3
				C427.5,258,452,297,452,339c0,18-4.4,35.8-12.8,51.6c-2.6,4.9-0.7,10.9,4.1,13.5c1.5,0.8,3.1,1.2,4.7,1.2c3.6,0,7-1.9,8.8-5.3
				c9.9-18.6,15.2-39.7,15.2-61C472,314,464.9,289.8,451.5,268.9z"/>
		</g>
	</g>
	<g>
		<g>
			
				<linearGradient id="SVGID_3_" gradientUnits="userSpaceOnUse" x1="347" y1="295" x2="367.6261" y2="295" gradientTransform="matrix(1 0 0 -1 0 514)">
				<stop  offset="0" style="stop-color:#2A3E75"/>
				<stop  offset="1" style="stop-color:#233871"/>
			</linearGradient>
			<path class="st13" d="M357.7,209H357c-5.5,0-10,4.5-10,10s4.5,10,10,10h0.6l0,0c5.5,0,10-4.4,10-10
				C367.7,213.5,363.2,209,357.7,209z"/>
		</g>
	</g>
	<g>
		<g>
			
				<linearGradient id="SVGID_4_" gradientUnits="userSpaceOnUse" x1="212" y1="149.0343" x2="300.056" y2="149.0343" gradientTransform="matrix(1 0 0 -1 0 514)">
				<stop  offset="0" style="stop-color:#2A3E75"/>
				<stop  offset="1" style="stop-color:#233871"/>
			</linearGradient>
			<path class="st14" d="M294.4,438.2C256.5,420,232,381,232,339c0-18,4.4-35.8,12.8-51.6c2.6-4.9,0.7-10.9-4.1-13.5
				c-4.9-2.6-10.9-0.7-13.5,4.1c-9.9,18.6-15.2,39.7-15.2,61c0,25,7.1,49.2,20.5,70.1c13.1,20.4,31.5,36.6,53.2,47.1
				c1.4,0.7,2.9,1,4.3,1c3.7,0,7.3-2.1,9-5.7C301.5,446.6,299.4,440.6,294.4,438.2z"/>
		</g>
	</g>
	<g>
		<g>
			
				<linearGradient id="SVGID_5_" gradientUnits="userSpaceOnUse" x1="316.3774" y1="55" x2="337.0015" y2="55" gradientTransform="matrix(1 0 0 -1 0 514)">
				<stop  offset="0" style="stop-color:#2A3E75"/>
				<stop  offset="1" style="stop-color:#233871"/>
			</linearGradient>
			<path class="st15" d="M327,449h-0.6c-5.5,0-10,4.4-10,10c0,5.5,4.4,10,10,10h0.7c5.5,0,10-4.5,10-10C337,453.5,332.5,449,327,449
				z"/>
		</g>
	</g>
	<g>
		<g>
			
				<linearGradient id="SVGID_6_" gradientUnits="userSpaceOnUse" x1="0" y1="258" x2="512.1" y2="258" gradientTransform="matrix(1 0 0 -1 0 514)">
				<stop  offset="0" style="stop-color:#2A3E75"/>
				<stop  offset="1" style="stop-color:#233871"/>
			</linearGradient>
			<path class="st16" d="M387.4,175.2c-1.2-2.9-2.7-5.6-4.4-8.2h26c25.4,0,46-20.6,46-46s-20.6-46-46-46h-80.1
				c5.1-7.4,8.1-16.4,8.1-26c0-25.4-20.6-46-46-46H46C20.6,3,0,23.6,0,49s20.6,46,46,46h80.1c-5.1,7.4-8.1,16.4-8.1,26
				s3,18.6,8.1,26H100c-25.4,0-46,20.6-46,46c0,14.6,6.8,27.6,17.4,36C60.8,237.4,54,250.4,54,265s6.8,27.6,17.4,36
				C60.8,309.4,54,322.4,54,337s6.8,27.6,17.4,36C60.8,381.4,54,394.4,54,409c0,25.4,20.6,46,46,46h117.9c31,33.2,75.2,54,124.2,54
				c93.7,0,170-76.3,170-170C512,261,459.2,195.1,387.4,175.2z M409,95c14.3,0,26,11.7,26,26s-11.7,26-26,26h-64H164
				c-14.3,0-26-11.7-26-26s11.7-26,26-26H409z M46,75c-14.3,0-26-11.7-26-26s11.7-26,26-26h245c14.3,0,26,11.7,26,26s-11.7,26-26,26
				H46z M100,167h245c4,0,7.9,0.9,11.3,2.6c-4.7-0.4-9.5-0.6-14.3-0.6c-46.9,0-89.5,19.1-120.3,50H100c-14.3,0-26-11.7-26-26
				S85.7,167,100,167z M100,239h104.6c-11.4,15.6-20.1,33.1-25.7,52H100c-14.3,0-26-11.7-26-26C74,250.7,85.7,239,100,239z M100,311
				h74.3c-1.5,9.1-2.3,18.5-2.3,28c0,8.1,0.6,16.2,1.7,24H100c-14.3,0-26-11.7-26-26S85.7,311,100,311z M100,435
				c-14.3,0-26-11.7-26-26s11.7-26,26-26h77.8c5,18.8,13.2,36.3,24,52H100z M342,489c-82.7,0-150-67.3-150-150s67.3-150,150-150
				s150,67.3,150,150S424.7,489,342,489z"/>
		</g>
	</g>
</g>
</svg>
